GirlWhoCry/Binaries/Win64/Preparation.exe	2020-03-12T07:39:30.113Z
Engine/Extras/Redist/en-us/UE4PrereqSetup_x64.exe	2020-03-11T18:06:02.337Z
Engine/Binaries/ThirdParty/Oculus/OVRPlugin/OVRPlugin/Win64/OVRPlugin.dll	2020-03-11T17:49:48.288Z
Engine/Binaries/ThirdParty/DbgHelp/dbghelp.dll	2020-03-11T17:49:11.900Z
Engine/Binaries/ThirdParty/libsndfile/Win64/libsndfile-1.dll	2020-03-11T17:49:18.580Z
Engine/Binaries/ThirdParty/Ogg/Win64/VS2015/libogg_64.dll	2020-03-11T17:49:48.483Z
Engine/Binaries/ThirdParty/Vorbis/Win64/VS2015/libvorbis_64.dll	2020-03-11T17:51:20.602Z
Engine/Binaries/ThirdParty/Vorbis/Win64/VS2015/libvorbisfile_64.dll	2020-03-11T17:51:20.633Z
Engine/Binaries/ThirdParty/NVIDIA/NVaftermath/Win64/GFSDK_Aftermath_Lib.x64.dll	2020-03-11T17:49:47.789Z
Engine/Binaries/ThirdParty/Windows/DirectX/x64/WinPixEventRuntime.dll	2020-03-11T17:51:23.806Z
Engine/Binaries/ThirdParty/PhysX3/Win64/VS2015/PxFoundationPROFILE_x64.dll	2020-03-11T17:50:40.244Z
Engine/Binaries/ThirdParty/PhysX3/Win64/VS2015/PxPvdSDKPROFILE_x64.dll	2020-03-11T17:50:41.159Z
Engine/Binaries/ThirdParty/PhysX3/Win64/VS2015/PhysX3PROFILE_x64.dll	2020-03-11T17:50:38.973Z
Engine/Binaries/ThirdParty/PhysX3/Win64/VS2015/PhysX3CookingPROFILE_x64.dll	2020-03-11T17:50:38.034Z
Engine/Binaries/ThirdParty/PhysX3/Win64/VS2015/PhysX3CommonPROFILE_x64.dll	2020-03-11T17:50:37.126Z
Engine/Binaries/ThirdParty/PhysX3/Win64/VS2015/APEX_ClothingPROFILE_x64.dll	2020-03-11T17:50:25.383Z
Engine/Binaries/ThirdParty/PhysX3/Win64/VS2015/APEX_LegacyPROFILE_x64.dll	2020-03-11T17:50:34.703Z
Engine/Binaries/ThirdParty/PhysX3/Win64/VS2015/ApexFrameworkPROFILE_x64.dll	2020-03-11T17:50:34.967Z
Engine/Binaries/ThirdParty/PhysX3/Win64/VS2015/NvClothPROFILE_x64.dll	2020-03-11T17:50:35.134Z
Engine/Binaries/ThirdParty/OpenVR/OpenVRv1_5_17/Win64/openvr_api.dll	2020-03-11T17:49:48.830Z
Preparation.exe	2020-03-12T07:42:28.845Z
